%!PS-Adobe-3.0 EPSF-3.0
%%Title: mp_n_5_1000p_10000v.eps
%%Creator: matplotlib version 2.0.0, http://matplotlib.org/
%%CreationDate: Thu Mar  2 02:36:58 2017
%%Orientation: portrait
%%BoundingBox: 107 245 504 546
%%EndComments
%%BeginProlog
/mpldict 8 dict def
mpldict begin
/m { moveto } bind def
/l { lineto } bind def
/r { rlineto } bind def
/c { curveto } bind def
/cl { closepath } bind def
/box {
m
1 index 0 r
0 exch r
neg 0 r
cl
} bind def
/clipbox {
box
clip
newpath
} bind def
%!PS-Adobe-3.0 Resource-Font
%%Title: DejaVu Sans
%%Copyright: Copyright (c) 2003 by Bitstream, Inc. All Rights Reserved. Copyright (c) 2006 by Tavmjong Bah. All Rights Reserved. DejaVu changes are in public domain 
%%Creator: Converted from TrueType to type 3 by PPR
25 dict begin
/_d{bind def}bind def
/_m{moveto}_d
/_l{lineto}_d
/_cl{closepath eofill}_d
/_c{curveto}_d
/_sc{7 -1 roll{setcachedevice}{pop pop pop pop pop pop}ifelse}_d
/_e{exec}_d
/FontName /DejaVuSans def
/PaintType 0 def
/FontMatrix[.001 0 0 .001 0 0]def
/FontBBox[-1021 -463 1793 1232]def
/FontType 3 def
/Encoding [ /period /zero /one /two /four /five /six /seven /eight ] def
/FontInfo 10 dict dup begin
/FamilyName (DejaVu Sans) def
/FullName (DejaVu Sans) def
/Notice (Copyright (c) 2003 by Bitstream, Inc. All Rights Reserved. Copyright (c) 2006 by Tavmjong Bah. All Rights Reserved. DejaVu changes are in public domain ) def
/Weight (Book) def
/Version (Version 2.35) def
/ItalicAngle 0.0 def
/isFixedPitch false def
/UnderlinePosition -130 def
/UnderlineThickness 90 def
end readonly def
/CharStrings 9 dict dup begin
/period{318 0 107 0 210 124 _sc
107 124 _m
210 124 _l
210 0 _l
107 0 _l
107 124 _l
_cl}_d
/zero{636 0 66 -13 570 742 _sc
318 664 _m
267 664 229 639 203 589 _c
177 539 165 464 165 364 _c
165 264 177 189 203 139 _c
229 89 267 64 318 64 _c
369 64 407 89 433 139 _c
458 189 471 264 471 364 _c
471 464 458 539 433 589 _c
407 639 369 664 318 664 _c
318 742 _m
399 742 461 709 505 645 _c
548 580 570 486 570 364 _c
570 241 548 147 505 83 _c
461 19 399 -13 318 -13 _c
236 -13 173 19 130 83 _c
87 147 66 241 66 364 _c
66 486 87 580 130 645 _c
173 709 236 742 318 742 _c
_cl}_d
/one{636 0 110 0 544 729 _sc
124 83 _m
285 83 _l
285 639 _l
110 604 _l
110 694 _l
284 729 _l
383 729 _l
383 83 _l
544 83 _l
544 0 _l
124 0 _l
124 83 _l
_cl}_d
/two{{636 0 73 0 536 742 _sc
192 83 _m
536 83 _l
536 0 _l
73 0 _l
73 83 _l
110 121 161 173 226 239 _c
290 304 331 346 348 365 _c
380 400 402 430 414 455 _c
426 479 433 504 433 528 _c
433 566 419 598 392 622 _c
365 646 330 659 286 659 _c
255 659 222 653 188 643 _c
154 632 117 616 78 594 _c
78 694 _l
118 710 155 722 189 730 _c
223 738 255 742 284 742 _c
}_e{359 742 419 723 464 685 _c
509 647 532 597 532 534 _c
532 504 526 475 515 449 _c
504 422 484 390 454 354 _c
446 344 420 317 376 272 _c
332 227 271 164 192 83 _c
_cl}_e}_d
/four{636 0 49 0 580 729 _sc
378 643 _m
129 254 _l
378 254 _l
378 643 _l
352 729 _m
476 729 _l
476 254 _l
580 254 _l
580 172 _l
476 172 _l
476 0 _l
378 0 _l
378 172 _l
49 172 _l
49 267 _l
352 729 _l
_cl}_d
/five{{636 0 77 -13 549 729 _sc
108 729 _m
495 729 _l
495 646 _l
198 646 _l
198 467 _l
212 472 227 476 241 478 _c
255 480 270 482 284 482 _c
365 482 429 459 477 415 _c
525 370 549 310 549 234 _c
549 155 524 94 475 51 _c
426 8 357 -13 269 -13 _c
238 -13 207 -10 175 -6 _c
143 -1 111 6 77 17 _c
77 116 _l
106 100 136 88 168 80 _c
199 72 232 69 267 69 _c
}_e{323 69 368 83 401 113 _c
433 143 450 183 450 234 _c
450 284 433 324 401 354 _c
368 384 323 399 267 399 _c
241 399 214 396 188 390 _c
162 384 135 375 108 363 _c
108 729 _l
_cl}_e}_d
/six{{636 0 70 -13 573 742 _sc
330 404 _m
286 404 251 388 225 358 _c
199 328 186 286 186 234 _c
186 181 199 139 225 109 _c
251 79 286 64 330 64 _c
374 64 409 79 435 109 _c
461 139 474 181 474 234 _c
474 286 461 328 435 358 _c
409 388 374 404 330 404 _c
526 713 _m
526 623 _l
501 635 476 644 451 650 _c
425 656 400 659 376 659 _c
310 659 260 637 226 593 _c
}_e{192 549 172 482 168 394 _c
187 422 211 444 240 459 _c
269 474 301 482 336 482 _c
409 482 467 459 509 415 _c
551 371 573 310 573 234 _c
573 159 550 99 506 54 _c
462 9 403 -13 330 -13 _c
246 -13 181 19 137 83 _c
92 147 70 241 70 364 _c
70 479 97 571 152 639 _c
206 707 280 742 372 742 _c
396 742 421 739 447 735 _c
472 730 498 723 526 713 _c
_cl}_e}_d
/seven{636 0 82 0 551 729 _sc
82 729 _m
551 729 _l
551 687 _l
286 0 _l
183 0 _l
432 646 _l
82 646 _l
82 729 _l
_cl}_d
/eight{{636 0 68 -13 568 742 _sc
318 346 _m
271 346 234 333 207 308 _c
180 283 167 249 167 205 _c
167 161 180 126 207 101 _c
234 76 271 64 318 64 _c
364 64 401 76 428 102 _c
455 127 469 161 469 205 _c
469 249 455 283 429 308 _c
402 333 365 346 318 346 _c
219 388 _m
177 398 144 418 120 447 _c
96 476 85 511 85 553 _c
85 611 105 657 147 691 _c
188 725 245 742 318 742 _c
}_e{390 742 447 725 489 691 _c
530 657 551 611 551 553 _c
551 511 539 476 515 447 _c
491 418 459 398 417 388 _c
464 377 501 355 528 323 _c
554 291 568 251 568 205 _c
568 134 546 80 503 43 _c
459 5 398 -13 318 -13 _c
237 -13 175 5 132 43 _c
89 80 68 134 68 205 _c
68 251 81 291 108 323 _c
134 355 171 377 219 388 _c
183 544 _m
183 506 194 476 218 455 _c
}_e{242 434 275 424 318 424 _c
360 424 393 434 417 455 _c
441 476 453 506 453 544 _c
453 582 441 611 417 632 _c
393 653 360 664 318 664 _c
275 664 242 653 218 632 _c
194 611 183 582 183 544 _c
_cl}_e}_d
end readonly def

/BuildGlyph
 {exch begin
 CharStrings exch
 2 copy known not{pop /.notdef}if
 true 3 1 roll get exec
 end}_d

/BuildChar {
 1 index /Encoding get exch get
 1 index /BuildGlyph get exec
}_d

FontName currentdict end definefont pop
end
%%EndProlog
mpldict begin
107.037 245.658 translate
397.926 300.684 0 0 clipbox
gsave
0 0 m
397.92625 0 l
397.92625 300.683875 l
0 300.683875 l
cl
1.000 setgray
fill
grestore
gsave
30.10625 23.871875 m
387.22625 23.871875 l
387.22625 289.983875 l
30.10625 289.983875 l
cl
1.000 setgray
fill
grestore
gsave
357.1 266.1 30.11 23.87 clipbox
86.79417 23.871875 m
91.460967 23.871875 l
91.460967 116.799875 l
86.79417 116.799875 l
cl
0.122 0.467 0.706 setrgbcolor
fill
grestore
gsave
357.1 266.1 30.11 23.87 clipbox
91.460967 23.871875 m
96.127765 23.871875 l
96.127765 167.487875 l
91.460967 167.487875 l
cl
0.122 0.467 0.706 setrgbcolor
fill
grestore
gsave
357.1 266.1 30.11 23.87 clipbox
96.127765 23.871875 m
100.794562 23.871875 l
100.794562 192.831875 l
96.127765 192.831875 l
cl
0.122 0.467 0.706 setrgbcolor
fill
grestore
gsave
357.1 266.1 30.11 23.87 clipbox
100.794562 23.871875 m
105.46136 23.871875 l
105.46136 218.175875 l
100.794562 218.175875 l
cl
0.122 0.467 0.706 setrgbcolor
fill
grestore
gsave
357.1 266.1 30.11 23.87 clipbox
105.46136 23.871875 m
110.128157 23.871875 l
110.128157 235.071875 l
105.46136 235.071875 l
cl
0.122 0.467 0.706 setrgbcolor
fill
grestore
gsave
357.1 266.1 30.11 23.87 clipbox
110.128157 23.871875 m
114.794954 23.871875 l
114.794954 235.071875 l
110.128157 235.071875 l
cl
0.122 0.467 0.706 setrgbcolor
fill
grestore
gsave
357.1 266.1 30.11 23.87 clipbox
114.794954 23.871875 m
119.461752 23.871875 l
119.461752 260.415875 l
114.794954 260.415875 l
cl
0.122 0.467 0.706 setrgbcolor
fill
grestore
gsave
357.1 266.1 30.11 23.87 clipbox
119.461752 23.871875 m
124.128549 23.871875 l
124.128549 243.519875 l
119.461752 243.519875 l
cl
0.122 0.467 0.706 setrgbcolor
fill
grestore
gsave
357.1 266.1 30.11 23.87 clipbox
124.128549 23.871875 m
128.795347 23.871875 l
128.795347 268.863875 l
124.128549 268.863875 l
cl
0.122 0.467 0.706 setrgbcolor
fill
grestore
gsave
357.1 266.1 30.11 23.87 clipbox
128.795347 23.871875 m
133.462144 23.871875 l
133.462144 260.415875 l
128.795347 260.415875 l
cl
0.122 0.467 0.706 setrgbcolor
fill
grestore
gsave
357.1 266.1 30.11 23.87 clipbox
133.462144 23.871875 m
138.128942 23.871875 l
138.128942 268.863875 l
133.462144 268.863875 l
cl
0.122 0.467 0.706 setrgbcolor
fill
grestore
gsave
357.1 266.1 30.11 23.87 clipbox
138.128942 23.871875 m
142.795739 23.871875 l
142.795739 260.415875 l
138.128942 260.415875 l
cl
0.122 0.467 0.706 setrgbcolor
fill
grestore
gsave
357.1 266.1 30.11 23.87 clipbox
142.795739 23.871875 m
147.462536 23.871875 l
147.462536 251.967875 l
142.795739 251.967875 l
cl
0.122 0.467 0.706 setrgbcolor
fill
grestore
gsave
357.1 266.1 30.11 23.87 clipbox
147.462536 23.871875 m
152.129334 23.871875 l
152.129334 277.311875 l
147.462536 277.311875 l
cl
0.122 0.467 0.706 setrgbcolor
fill
grestore
gsave
357.1 266.1 30.11 23.87 clipbox
152.129334 23.871875 m
156.796131 23.871875 l
156.796131 235.071875 l
152.129334 235.071875 l
cl
0.122 0.467 0.706 setrgbcolor
fill
grestore
gsave
357.1 266.1 30.11 23.87 clipbox
156.796131 23.871875 m
161.462929 23.871875 l
161.462929 260.415875 l
156.796131 260.415875 l
cl
0.122 0.467 0.706 setrgbcolor
fill
grestore
gsave
357.1 266.1 30.11 23.87 clipbox
161.462929 23.871875 m
166.129726 23.871875 l
166.129726 243.519875 l
161.462929 243.519875 l
cl
0.122 0.467 0.706 setrgbcolor
fill
grestore
gsave
357.1 266.1 30.11 23.87 clipbox
166.129726 23.871875 m
170.796524 23.871875 l
170.796524 243.519875 l
166.129726 243.519875 l
cl
0.122 0.467 0.706 setrgbcolor
fill
grestore
gsave
357.1 266.1 30.11 23.87 clipbox
170.796524 23.871875 m
175.463321 23.871875 l
175.463321 251.967875 l
170.796524 251.967875 l
cl
0.122 0.467 0.706 setrgbcolor
fill
grestore
gsave
357.1 266.1 30.11 23.87 clipbox
175.463321 23.871875 m
180.130119 23.871875 l
180.130119 251.967875 l
175.463321 251.967875 l
cl
0.122 0.467 0.706 setrgbcolor
fill
grestore
gsave
357.1 266.1 30.11 23.87 clipbox
180.130119 23.871875 m
184.796916 23.871875 l
184.796916 226.623875 l
180.130119 226.623875 l
cl
0.122 0.467 0.706 setrgbcolor
fill
grestore
gsave
357.1 266.1 30.11 23.87 clipbox
184.796916 23.871875 m
189.463713 23.871875 l
189.463713 243.519875 l
184.796916 243.519875 l
cl
0.122 0.467 0.706 setrgbcolor
fill
grestore
gsave
357.1 266.1 30.11 23.87 clipbox
189.463713 23.871875 m
194.130511 23.871875 l
194.130511 218.175875 l
189.463713 218.175875 l
cl
0.122 0.467 0.706 setrgbcolor
fill
grestore
gsave
357.1 266.1 30.11 23.87 clipbox
194.130511 23.871875 m
198.797308 23.871875 l
198.797308 226.623875 l
194.130511 226.623875 l
cl
0.122 0.467 0.706 setrgbcolor
fill
grestore
gsave
357.1 266.1 30.11 23.87 clipbox
198.797308 23.871875 m
203.464106 23.871875 l
203.464106 235.071875 l
198.797308 235.071875 l
cl
0.122 0.467 0.706 setrgbcolor
fill
grestore
gsave
357.1 266.1 30.11 23.87 clipbox
203.464106 23.871875 m
208.130903 23.871875 l
208.130903 226.623875 l
203.464106 226.623875 l
cl
0.122 0.467 0.706 setrgbcolor
fill
grestore
gsave
357.1 266.1 30.11 23.87 clipbox
208.130903 23.871875 m
212.797701 23.871875 l
212.797701 201.279875 l
208.130903 201.279875 l
cl
0.122 0.467 0.706 setrgbcolor
fill
grestore
gsave
357.1 266.1 30.11 23.87 clipbox
212.797701 23.871875 m
217.464498 23.871875 l
217.464498 218.175875 l
212.797701 218.175875 l
cl
0.122 0.467 0.706 setrgbcolor
fill
grestore
gsave
357.1 266.1 30.11 23.87 clipbox
217.464498 23.871875 m
222.131296 23.871875 l
222.131296 184.383875 l
217.464498 184.383875 l
cl
0.122 0.467 0.706 setrgbcolor
fill
grestore
gsave
357.1 266.1 30.11 23.87 clipbox
222.131296 23.871875 m
226.798093 23.871875 l
226.798093 209.727875 l
222.131296 209.727875 l
cl
0.122 0.467 0.706 setrgbcolor
fill
grestore
gsave
357.1 266.1 30.11 23.87 clipbox
226.798093 23.871875 m
231.46489 23.871875 l
231.46489 184.383875 l
226.798093 184.383875 l
cl
0.122 0.467 0.706 setrgbcolor
fill
grestore
gsave
357.1 266.1 30.11 23.87 clipbox
231.46489 23.871875 m
236.131688 23.871875 l
236.131688 192.831875 l
231.46489 192.831875 l
cl
0.122 0.467 0.706 setrgbcolor
fill
grestore
gsave
357.1 266.1 30.11 23.87 clipbox
236.131688 23.871875 m
240.798485 23.871875 l
240.798485 175.935875 l
236.131688 175.935875 l
cl
0.122 0.467 0.706 setrgbcolor
fill
grestore
gsave
357.1 266.1 30.11 23.87 clipbox
240.798485 23.871875 m
245.465283 23.871875 l
245.465283 184.383875 l
240.798485 184.383875 l
cl
0.122 0.467 0.706 setrgbcolor
fill
grestore
gsave
357.1 266.1 30.11 23.87 clipbox
245.465283 23.871875 m
250.13208 23.871875 l
250.13208 175.935875 l
245.465283 175.935875 l
cl
0.122 0.467 0.706 setrgbcolor
fill
grestore
gsave
357.1 266.1 30.11 23.87 clipbox
250.13208 23.871875 m
254.798878 23.871875 l
254.798878 159.039875 l
250.13208 159.039875 l
cl
0.122 0.467 0.706 setrgbcolor
fill
grestore
gsave
357.1 266.1 30.11 23.87 clipbox
254.798878 23.871875 m
259.465675 23.871875 l
259.465675 159.039875 l
254.798878 159.039875 l
cl
0.122 0.467 0.706 setrgbcolor
fill
grestore
gsave
357.1 266.1 30.11 23.87 clipbox
259.465675 23.871875 m
264.132472 23.871875 l
264.132472 159.039875 l
259.465675 159.039875 l
cl
0.122 0.467 0.706 setrgbcolor
fill
grestore
gsave
357.1 266.1 30.11 23.87 clipbox
264.132472 23.871875 m
268.79927 23.871875 l
268.79927 150.591875 l
264.132472 150.591875 l
cl
0.122 0.467 0.706 setrgbcolor
fill
grestore
gsave
357.1 266.1 30.11 23.87 clipbox
268.79927 23.871875 m
273.466067 23.871875 l
273.466067 142.143875 l
268.79927 142.143875 l
cl
0.122 0.467 0.706 setrgbcolor
fill
grestore
gsave
357.1 266.1 30.11 23.87 clipbox
273.466067 23.871875 m
278.132865 23.871875 l
278.132865 133.695875 l
273.466067 133.695875 l
cl
0.122 0.467 0.706 setrgbcolor
fill
grestore
gsave
357.1 266.1 30.11 23.87 clipbox
278.132865 23.871875 m
282.799662 23.871875 l
282.799662 142.143875 l
278.132865 142.143875 l
cl
0.122 0.467 0.706 setrgbcolor
fill
grestore
gsave
357.1 266.1 30.11 23.87 clipbox
282.799662 23.871875 m
287.46646 23.871875 l
287.46646 108.351875 l
282.799662 108.351875 l
cl
0.122 0.467 0.706 setrgbcolor
fill
grestore
gsave
357.1 266.1 30.11 23.87 clipbox
287.46646 23.871875 m
292.133257 23.871875 l
292.133257 125.247875 l
287.46646 125.247875 l
cl
0.122 0.467 0.706 setrgbcolor
fill
grestore
gsave
357.1 266.1 30.11 23.87 clipbox
292.133257 23.871875 m
296.800055 23.871875 l
296.800055 108.351875 l
292.133257 108.351875 l
cl
0.122 0.467 0.706 setrgbcolor
fill
grestore
gsave
357.1 266.1 30.11 23.87 clipbox
296.800055 23.871875 m
301.466852 23.871875 l
301.466852 108.351875 l
296.800055 108.351875 l
cl
0.122 0.467 0.706 setrgbcolor
fill
grestore
gsave
357.1 266.1 30.11 23.87 clipbox
301.466852 23.871875 m
306.133649 23.871875 l
306.133649 99.903875 l
301.466852 99.903875 l
cl
0.122 0.467 0.706 setrgbcolor
fill
grestore
gsave
357.1 266.1 30.11 23.87 clipbox
306.133649 23.871875 m
310.800447 23.871875 l
310.800447 66.111875 l
306.133649 66.111875 l
cl
0.122 0.467 0.706 setrgbcolor
fill
grestore
gsave
357.1 266.1 30.11 23.87 clipbox
310.800447 23.871875 m
315.467244 23.871875 l
315.467244 66.111875 l
310.800447 66.111875 l
cl
0.122 0.467 0.706 setrgbcolor
fill
grestore
gsave
357.1 266.1 30.11 23.87 clipbox
315.467244 23.871875 m
320.134042 23.871875 l
320.134042 66.111875 l
315.467244 66.111875 l
cl
0.122 0.467 0.706 setrgbcolor
fill
grestore
0.800 setlinewidth
1 setlinejoin
0 setlinecap
[] 0 setdash
0.000 setgray
gsave
/o {
gsave
newpath
translate
0.8 setlinewidth
1 setlinejoin
0 setlinecap
0 0 m
0 -3.5 l

gsave
0.000 setgray
fill
grestore
stroke
grestore
} bind def
46.339 23.8719 o
grestore
/DejaVuSans findfont
10.000 scalefont
setfont
gsave
35.206165 9.278125 translate
0.000000 rotate
0.000000 0.000000 m /zero glyphshow
6.362305 0.000000 m /period glyphshow
9.541016 0.000000 m /two glyphshow
15.903320 0.000000 m /five glyphshow
grestore
gsave
/o {
gsave
newpath
translate
0.8 setlinewidth
1 setlinejoin
0 setlinecap
0 0 m
0 -3.5 l

gsave
0.000 setgray
fill
grestore
stroke
grestore
} bind def
92.7182 23.8719 o
grestore
gsave
81.585386 9.278125 translate
0.000000 rotate
0.000000 0.000000 m /zero glyphshow
6.362305 0.000000 m /period glyphshow
9.541016 0.000000 m /five glyphshow
15.903320 0.000000 m /zero glyphshow
grestore
gsave
/o {
gsave
newpath
translate
0.8 setlinewidth
1 setlinejoin
0 setlinecap
0 0 m
0 -3.5 l

gsave
0.000 setgray
fill
grestore
stroke
grestore
} bind def
139.097 23.8719 o
grestore
gsave
127.964606 9.278125 translate
0.000000 rotate
0.000000 0.000000 m /zero glyphshow
6.362305 0.000000 m /period glyphshow
9.541016 0.000000 m /seven glyphshow
15.903320 0.000000 m /five glyphshow
grestore
gsave
/o {
gsave
newpath
translate
0.8 setlinewidth
1 setlinejoin
0 setlinecap
0 0 m
0 -3.5 l

gsave
0.000 setgray
fill
grestore
stroke
grestore
} bind def
185.477 23.8719 o
grestore
gsave
174.343827 9.278125 translate
0.000000 rotate
0.000000 0.000000 m /one glyphshow
6.362305 0.000000 m /period glyphshow
9.541016 0.000000 m /zero glyphshow
15.903320 0.000000 m /zero glyphshow
grestore
gsave
/o {
gsave
newpath
translate
0.8 setlinewidth
1 setlinejoin
0 setlinecap
0 0 m
0 -3.5 l

gsave
0.000 setgray
fill
grestore
stroke
grestore
} bind def
231.856 23.8719 o
grestore
gsave
220.723048 9.278125 translate
0.000000 rotate
0.000000 0.000000 m /one glyphshow
6.362305 0.000000 m /period glyphshow
9.541016 0.000000 m /two glyphshow
15.903320 0.000000 m /five glyphshow
grestore
gsave
/o {
gsave
newpath
translate
0.8 setlinewidth
1 setlinejoin
0 setlinecap
0 0 m
0 -3.5 l

gsave
0.000 setgray
fill
grestore
stroke
grestore
} bind def
278.235 23.8719 o
grestore
gsave
267.102269 9.278125 translate
0.000000 rotate
0.000000 0.000000 m /one glyphshow
6.362305 0.000000 m /period glyphshow
9.541016 0.000000 m /five glyphshow
15.903320 0.000000 m /zero glyphshow
grestore
gsave
/o {
gsave
newpath
translate
0.8 setlinewidth
1 setlinejoin
0 setlinecap
0 0 m
0 -3.5 l

gsave
0.000 setgray
fill
grestore
stroke
grestore
} bind def
324.614 23.8719 o
grestore
gsave
313.481489 9.278125 translate
0.000000 rotate
0.000000 0.000000 m /one glyphshow
6.362305 0.000000 m /period glyphshow
9.541016 0.000000 m /seven glyphshow
15.903320 0.000000 m /five glyphshow
grestore
gsave
/o {
gsave
newpath
translate
0.8 setlinewidth
1 setlinejoin
0 setlinecap
0 0 m
0 -3.5 l

gsave
0.000 setgray
fill
grestore
stroke
grestore
} bind def
370.994 23.8719 o
grestore
gsave
359.860710 9.278125 translate
0.000000 rotate
0.000000 0.000000 m /two glyphshow
6.362305 0.000000 m /period glyphshow
9.541016 0.000000 m /zero glyphshow
15.903320 0.000000 m /zero glyphshow
grestore
gsave
/o {
gsave
newpath
translate
0.8 setlinewidth
1 setlinejoin
0 setlinecap
0 0 m
-3.5 0 l

gsave
0.000 setgray
fill
grestore
stroke
grestore
} bind def
30.1062 23.8719 o
grestore
gsave
7.200000 20.075000 translate
0.000000 rotate
0.000000 0.000000 m /zero glyphshow
6.362305 0.000000 m /period glyphshow
9.541016 0.000000 m /zero glyphshow
grestore
gsave
/o {
gsave
newpath
translate
0.8 setlinewidth
1 setlinejoin
0 setlinecap
0 0 m
-3.5 0 l

gsave
0.000 setgray
fill
grestore
stroke
grestore
} bind def
30.1062 66.3749 o
grestore
gsave
7.200000 62.577983 translate
0.000000 rotate
0.000000 0.000000 m /zero glyphshow
6.362305 0.000000 m /period glyphshow
9.541016 0.000000 m /two glyphshow
grestore
gsave
/o {
gsave
newpath
translate
0.8 setlinewidth
1 setlinejoin
0 setlinecap
0 0 m
-3.5 0 l

gsave
0.000 setgray
fill
grestore
stroke
grestore
} bind def
30.1062 108.878 o
grestore
gsave
7.200000 105.080966 translate
0.000000 rotate
0.000000 0.000000 m /zero glyphshow
6.362305 0.000000 m /period glyphshow
9.541016 0.000000 m /four glyphshow
grestore
gsave
/o {
gsave
newpath
translate
0.8 setlinewidth
1 setlinejoin
0 setlinecap
0 0 m
-3.5 0 l

gsave
0.000 setgray
fill
grestore
stroke
grestore
} bind def
30.1062 151.381 o
grestore
gsave
7.200000 147.583949 translate
0.000000 rotate
0.000000 0.000000 m /zero glyphshow
6.362305 0.000000 m /period glyphshow
9.541016 0.000000 m /six glyphshow
grestore
gsave
/o {
gsave
newpath
translate
0.8 setlinewidth
1 setlinejoin
0 setlinecap
0 0 m
-3.5 0 l

gsave
0.000 setgray
fill
grestore
stroke
grestore
} bind def
30.1062 193.884 o
grestore
gsave
7.200000 190.086933 translate
0.000000 rotate
0.000000 0.000000 m /zero glyphshow
6.362305 0.000000 m /period glyphshow
9.541016 0.000000 m /eight glyphshow
grestore
gsave
/o {
gsave
newpath
translate
0.8 setlinewidth
1 setlinejoin
0 setlinecap
0 0 m
-3.5 0 l

gsave
0.000 setgray
fill
grestore
stroke
grestore
} bind def
30.1062 236.387 o
grestore
gsave
7.200000 232.589916 translate
0.000000 rotate
0.000000 0.000000 m /one glyphshow
6.362305 0.000000 m /period glyphshow
9.541016 0.000000 m /zero glyphshow
grestore
gsave
/o {
gsave
newpath
translate
0.8 setlinewidth
1 setlinejoin
0 setlinecap
0 0 m
-3.5 0 l

gsave
0.000 setgray
fill
grestore
stroke
grestore
} bind def
30.1062 278.89 o
grestore
gsave
7.200000 275.092899 translate
0.000000 rotate
0.000000 0.000000 m /one glyphshow
6.362305 0.000000 m /period glyphshow
9.541016 0.000000 m /two glyphshow
grestore
1.500 setlinewidth
2 setlinecap
1.000 0.498 0.055 setrgbcolor
gsave
357.1 266.1 30.11 23.87 clipbox
46.338977 23.871875 m
86.636438 23.871875 l
86.961418 54.469107 l
87.611377 80.281205 l
88.261336 97.011858 l
89.236275 115.847703 l
90.211213 130.680303 l
91.511131 146.762186 l
92.811049 160.038264 l
94.110967 171.325402 l
95.735865 183.348868 l
97.360763 193.587216 l
98.98566 202.418739 l
100.610558 210.105634 l
102.235456 216.839282 l
103.860353 222.764866 l
105.81023 228.967021 l
107.760107 234.321945 l
109.709985 238.950788 l
111.659862 242.950852 l
113.609739 246.401685 l
115.559616 249.369275 l
117.509493 251.909039 l
119.45937 254.068008 l
121.409248 255.886452 l
123.359125 257.399122 l
125.309002 258.636215 l
127.258879 259.624124 l
129.208756 260.386044 l
131.483613 261.016518 l
133.758469 261.395759 l
136.033326 261.548738 l
138.308183 261.497374 l
140.908019 261.213136 l
143.507855 260.712473 l
146.432671 259.917947 l
149.682466 258.779785 l
152.932261 257.40392 l
156.507036 255.648813 l
160.406791 253.481009 l
164.631524 250.873101 l
169.181238 247.803518 l
174.38091 244.010895 l
179.905562 239.697452 l
186.080173 234.582951 l
192.904743 228.624248 l
200.379272 221.7842 l
208.178781 214.343676 l
216.628248 205.971271 l
225.402696 196.956196 l
234.177143 187.618099 l
242.62661 178.305296 l
250.751098 169.022385 l
258.225628 160.154938 l
265.375177 151.325507 l
271.874768 142.942945 l
277.724399 135.044606 l
283.249051 127.205124 l
288.123744 119.907215 l
292.673457 112.691821 l
296.573212 106.116205 l
300.147986 99.686104 l
303.397782 93.413312 l
306.322597 87.316391 l
308.922433 81.423735 l
311.19729 75.778181 l
313.472147 69.498491 l
315.422024 63.383056 l
317.046922 57.491559 l
318.34684 51.935615 l
319.321778 46.930176 l
320.296717 40.508387 l
320.946676 34.233974 l
321.596635 23.871875 l
370.993523 23.871875 l
370.993523 23.871875 l
stroke
grestore
0.800 setlinewidth
0 setlinejoin
[] 0 setdash
0.000 setgray
gsave
30.10625 23.871875 m
30.10625 289.983875 l
stroke
grestore
gsave
387.22625 23.871875 m
387.22625 289.983875 l
stroke
grestore
gsave
30.10625 23.871875 m
387.22625 23.871875 l
stroke
grestore
gsave
30.10625 289.983875 m
387.22625 289.983875 l
stroke
grestore

end
showpage
